…
## Load some Libraries

```r
library(tidyverse)
```

## Count the number of primary volcano types

```r
volcano_raw %>%
  count(primary_volcano_type, sort = TRUE)
```

```
## # A tibble: 26 x 2
##    primary_volcano_type     n
##    <chr>                <int>
##  1 Stratovolcano          353
##  2 Stratovolcano(es)      107
##  3 Shield                  85
##  4 Volcanic field          71
##  5 Pyroclastic cone(s)     70
##  6 Caldera                 65
##  7 Complex                 46
##  8 Shield(s)               33
##  9 Submarine               27
## 10 Lava dome(s)            26
## # ... with 16 more rows
```
…
# Bootstrap resample time!


```r
library(tidymodels)
volcano_boot <- bootstraps(volcano_df)

volcano_boot
```

```
## # Bootstrap sampling 
## # A tibble: 25 x 2
##    splits            id         
##    <list>            <chr>      
##  1 <split [958/356]> Bootstrap01
##  2 <split [958/337]> Bootstrap02
##  3 <split [958/356]> Bootstrap03
##  4 <split [958/333]> Bootstrap04
##  5 <split [958/357]> Bootstrap05
##  6 <split [958/351]> Bootstrap06
##  7 <split [958/369]> Bootstrap07
##  8 <split [958/340]> Bootstrap08
##  9 <split [958/348]> Bootstrap09
## 10 <split [958/359]> Bootstrap10
## # ... with 15 more rows
```
…
```r
volcano_prep <- prep(volcano_rec)
juice(volcano_prep)
```

```
## # A tibble: 1,383 x 14
##    volcano_number latitude longitude elevation volcano_type tectonic_settin~
##             <dbl>    <dbl>     <dbl>     <dbl> <fct>                   <dbl>
##  1         213004   0.746      0.101   -0.131  Other                  -0.289
##  2         284141   0.172      1.11    -1.39   Other                  -0.289
##  3         282080   0.526      0.975   -0.535  Other                  -0.289
##  4         285070   0.899      1.10    -0.263  Other                  -0.289
##  5         320020   1.44      -1.45     0.250  Other                  -0.289
##  6         221060  -0.0377     0.155   -0.920  Other                  -0.289
##  7         273088   0.0739     0.888    0.330  Other                  -0.289
##  8         266020  -0.451      0.918   -0.0514 Other                  -0.289
##  9         233011  -0.873      0.233   -0.280  Other                  -0.289
## 10         257040  -0.989      1.32    -0.380  Other                  -0.289
## # ... with 1,373 more rows, and 8 more variables:
## #   tectonic_settings_Rift.zone...Oceanic.crust....15.km. <dbl>,
## #   tectonic_settings_Subduction.zone...Continental.crust...25.km. <dbl>,
## #   tectonic_settings_Subduction.zone...Oceanic.crust....15.km. <dbl>,
## #   tectonic_settings_other <dbl>, major_rock_1_Basalt...Picro.Basalt <dbl>,
## #   major_rock_1_Dacite <dbl>,
## #   major_rock_1_Trachybasalt...Tephrite.Basanite <dbl>,
## #   major_rock_1_other <dbl>
```
…
## Grouping by resample


```r
volcano_res %>%
  collect_predictions() %>%
  group_by(id) %>%
  ppv(volcano_type, .pred_class)
```

```
## # A tibble: 25 x 4
##    id          .metric .estimator .estimate
##    <chr>       <chr>   <chr>          <dbl>
##  1 Bootstrap01 ppv     macro          0.635
##  2 Bootstrap02 ppv     macro          0.669
##  3 Bootstrap03 ppv     macro          0.628
##  4 Bootstrap04 ppv     macro          0.581
##  5 Bootstrap05 ppv     macro          0.649
##  6 Bootstrap06 ppv     macro          0.631
##  7 Bootstrap07 ppv     macro          0.633
##  8 Bootstrap08 ppv     macro          0.575
##  9 Bootstrap09 ppv     macro          0.666
## 10 Bootstrap10 ppv     macro          0.640
## # ... with 15 more rows
```
…
```
## Joining, by = c(".row", "volcano_type")
```

```r
volcano_pred
```

```
## # A tibble: 8,746 x 14
##    id    .pred_Other .pred_Shield .pred_Stratovol~  .row .pred_class
##    <chr>       <dbl>        <dbl>            <dbl> <int> <fct>      
##  1 Boot~       0.234       0.0645            0.701     5 Stratovolc~
##  2 Boot~       0.201       0.112             0.688    11 Stratovolc~
##  3 Boot~       0.508       0.0164            0.476    12 Other      
##  4 Boot~       0.518       0.0236            0.459    14 Other      
##  5 Boot~       0.297       0.135             0.568    19 Stratovolc~
##  6 Boot~       0.315       0.0311            0.654    21 Stratovolc~
##  7 Boot~       0.324       0.0970            0.579    23 Stratovolc~
##  8 Boot~       0.190       0.442             0.368    24 Shield     
##  9 Boot~       0.163       0.542             0.295    26 Shield     
## 10 Boot~       0.276       0.0660            0.658    27 Stratovolc~
## # ... with 8,736 more rows, and 8 more variables: volcano_type <fct>,
## #   correct <lgl>, volcano_number <dbl>, latitude <dbl>, longitude <dbl>,
## #   elevation <dbl>, tectonic_settings <fct>, major_rock_1 <fct>
```
…
