…
```r
# How many unique squirrels are there in central park?
# 3,018
# There are 5 dulplicate squirrels!
nyc_squirrels %>%
  count(unique_squirrel_id, sort=TRUE)
```

```
## # A tibble: 3,018 x 2
##    unique_squirrel_id     n
##    <chr>              <int>
##  1 1F-AM-1010-04          2
##  2 37E-PM-1006-03         2
##  3 40B-AM-1019-06         2
##  4 4C-PM-1010-05          2
##  5 7D-PM-1010-01          2
##  6 10A-AM-1006-01         1
##  7 10A-AM-1006-02         1
##  8 10A-AM-1006-03         1
##  9 10A-AM-1006-04         1
## 10 10A-PM-1014-01         1
## # ... with 3,008 more rows
```
…
