…
#second sweep to get rid of (all text in parenthesis) including the parenthesis!
computer$line<-  str_replace(computer$line,"\\s*\\([^\\)]+\\)","")

computer_ngram_2<- computer %>%
  filter(char != "Computer Voice") %>%
  filter(char != "Computer") %>%
  unnest_tokens(ngram, line, token = "ngrams", n = 3) %>%
  select(char,ngram) %>%
  count(ngram,sort=TRUE)

computer_ngram_2
```

```
## # A tibble: 5,754 x 2
##    ngram                       n
##    <chr>                   <int>
##  1 <NA>                      147
##  2 computer end program       20
##  3 computer freeze program    19
##  4 computer what is           18
##  5 what is the                18
##  6 all command functions      17
##  7 computer this is           17
##  8 a little more              16
##  9 auto destruct sequence     16
## 10 can you extrapolate        16
## # ... with 5,744 more rows
```
